…
``` r
# It looks like after filtering out children from our dataset, we have no missing
# values for education.

nhanes_bmi %>% 
  filter(completeness != "complete") %>% 
  select(completeness, weight_notes, height_notes, weight_kg, height_cm) %>% 
  arrange(completeness, height_notes, weight_notes) # %>%
```

    ## # A tibble: 401 x 5
    ##    completeness weight_notes height_notes weight_kg  height_cm 
    ##    <fct>        <fct>        <fct>        <labelled> <labelled>
    ##  1 ht_wt_only   clothing     not_straight  75.2      149.3     
    ##  2 ht_wt_only   clothing     not_straight  71.1      166.3     
    ##  3 ht_wt_only   clothing     not_straight  78.0      172.2     
    ##  4 ht_wt_only   clothing     not_straight 170.8      174.7     
    ##  5 ht_wt_only   clothing     not_straight  79.2      155.1     
    ##  6 ht_wt_only   clothing     not_straight  66.7      156.8     
    ##  7 ht_wt_only   clothing     not_straight  84.1      152.0     
    ##  8 ht_wt_only   clothing     not_straight  79.5      154.9     
    ##  9 ht_wt_only   clothing     not_straight  60.4      172.2     
    ## 10 ht_wt_only   clothing     not_straight 219.6      161.3     
    ## # … with 391 more rows
…
